flake8==3.5.0
flake8-comprehensions==1.4.1
flake8-import-order==0.17.1
flake8-print==3.1.0
faker==0.8.13
httpretty==0.9.5
pre-commit
pylint==1.8.3
pytest==3.5
pytest-cov==2.5.1
pytest-freezegun==0.2.0
splinter[zope.testbrowser]
pytest-splinter[zope.testbrowser]==2.0.0
pytest-tornasync==0.5.0
factory_boy==2.11.1
