<svg width="18" height="12" viewBox="0 0 18 12" version="1.1" xmlns="http://www.w3.org/2000/svg" xmlns:xlink="http://www.w3.org/1999/xlink">
<title>arrow-left</title>
<desc>Created using Figma</desc>
<g id="Canvas" transform="translate(-9494 304)">
<g id="icon/arrow-left">
<g id="tail-right">
<g id="Shape">
<use xlink:href="#path0_stroke" transform="matrix(1 1.22465e-16 1.22465e-16 -1 9495 -298)" fill="#2ba8ff"/>
</g>
<g id="Shape">
<use xlink:href="#path1_stroke" transform="matrix(1 1.22465e-16 1.22465e-16 -1 9505.9 -293.136)" fill="#2ba8ff"/>
</g>
</g>
</g>
</g>
<defs>
<path id="path0_stroke" d="M 0 -0.7C -0.386599 -0.7 -0.7 -0.386599 -0.7 0C -0.7 0.386599 -0.386599 0.7 0 0.7L 0 -0.7ZM 15.8009 0.7C 16.1875 0.7 16.5009 0.386599 16.5009 0C 16.5009 -0.386599 16.1875 -0.7 15.8009 -0.7L 15.8009 0.7ZM 0 0.7L 15.8009 0.7L 15.8009 -0.7L 0 -0.7L 0 0.7Z"/>
<path id="path1_stroke" d="M 0.494975 -0.494975C 0.221608 -0.768342 -0.221608 -0.768342 -0.494975 -0.494975C -0.768342 -0.221608 -0.768342 0.221608 -0.494975 0.494975L 0.494975 -0.494975ZM 4.90374 4.90374L 5.39872 5.39872C 5.67208 5.12535 5.67208 4.68214 5.39872 4.40877L 4.90374 4.90374ZM -0.494975 9.31251C -0.768342 9.58588 -0.768342 10.0291 -0.494975 10.3025C -0.221608 10.5758 0.221608 10.5758 0.494975 10.3025L -0.494975 9.31251ZM -0.494975 0.494975L 4.40877 5.39872L 5.39872 4.40877L 0.494975 -0.494975L -0.494975 0.494975ZM 4.40877 4.40877L -0.494975 9.31251L 0.494975 10.3025L 5.39872 5.39872L 4.40877 4.40877Z"/>
</defs>
</svg>
