<svg width="16" height="16" viewBox="0 0 16 16" fill="none" xmlns="http://www.w3.org/2000/svg">
<path d="M9.3 0L7.9 1.4L12.2 5.7H0V7.7H12.2L7.9 12L9.3 13.4L16 6.7L9.3 0Z" transform="translate(0 1)" fill="white"/>
</svg>
