<svg width="299" height="29" viewBox="0 0 299 29" fill="none" xmlns="http://www.w3.org/2000/svg">
<path d="M20.73 26.24C18.59 28.28 15.89 29.3 12.63 29.3C9.37 29.3 6.67 28.28 4.53 26.24C2.39 24.18 1.32 21.6 1.32 18.5C1.32 15.4 2.39 12.83 4.53 10.79C6.67 8.73 9.37 7.7 12.63 7.7C15.89 7.7 18.59 8.72 20.73 10.76C22.87 12.8 23.94 15.38 23.94 18.5C23.94 21.62 22.87 24.2 20.73 26.24ZM7.35 23.81C8.75 25.19 10.51 25.88 12.63 25.88C14.75 25.88 16.51 25.19 17.91 23.81C19.31 22.41 20.01 20.64 20.01 18.5C20.01 16.36 19.31 14.6 17.91 13.22C16.51 11.82 14.75 11.12 12.63 11.12C10.51 11.12 8.75 11.82 7.35 13.22C5.95 14.6 5.25 16.36 5.25 18.5C5.25 20.64 5.95 22.41 7.35 23.81ZM39.4739 12.98H43.2239V29H39.6539V26.96C38.4339 28.46 36.7139 29.21 34.4939 29.21C32.3539 29.21 30.6639 28.62 29.4239 27.44C28.2039 26.24 27.5939 24.47 27.5939 22.13V12.98H31.3439V21.62C31.3439 24.48 32.5939 25.91 35.0939 25.91C36.4339 25.91 37.4939 25.5 38.2739 24.68C39.0739 23.84 39.4739 22.64 39.4739 21.08V12.98ZM51.7038 15.32C52.7838 13.64 54.6838 12.8 57.4038 12.8V16.37C57.0838 16.31 56.7938 16.28 56.5338 16.28C55.0738 16.28 53.9338 16.71 53.1138 17.57C52.2938 18.41 51.8838 19.63 51.8838 21.23V29H48.1338V12.98H51.7038V15.32ZM78.0225 8C80.7825 8 82.9625 8.67 84.5625 10.01C86.1625 11.33 86.9625 13.15 86.9625 15.47C86.9625 17.77 86.1625 19.59 84.5625 20.93C82.9625 22.27 80.7825 22.94 78.0225 22.94H73.2825V29H69.3825V8H78.0225ZM77.8425 19.64C79.5425 19.64 80.8325 19.28 81.7125 18.56C82.5925 17.84 83.0325 16.81 83.0325 15.47C83.0325 14.13 82.5925 13.1 81.7125 12.38C80.8325 11.66 79.5425 11.3 77.8425 11.3H73.2825V19.64H77.8425ZM93.9206 15.32C95.0006 13.64 96.9006 12.8 99.6206 12.8V16.37C99.3006 16.31 99.0106 16.28 98.7506 16.28C97.2906 16.28 96.1506 16.71 95.3306 17.57C94.5106 18.41 94.1006 19.63 94.1006 21.23V29H90.3506V12.98H93.9206V15.32ZM109.855 29.21C107.395 29.21 105.355 28.44 103.735 26.9C102.135 25.36 101.335 23.39 101.335 20.99C101.335 18.59 102.135 16.63 103.735 15.11C105.355 13.57 107.395 12.8 109.855 12.8C112.355 12.8 114.405 13.57 116.005 15.11C117.605 16.63 118.405 18.59 118.405 20.99C118.405 23.39 117.605 25.36 116.005 26.9C114.405 28.44 112.355 29.21 109.855 29.21ZM106.435 24.62C107.335 25.54 108.475 26 109.855 26C111.235 26 112.375 25.54 113.275 24.62C114.175 23.7 114.625 22.49 114.625 20.99C114.625 19.49 114.175 18.28 113.275 17.36C112.375 16.44 111.235 15.98 109.855 15.98C108.475 15.98 107.335 16.44 106.435 17.36C105.555 18.28 105.115 19.49 105.115 20.99C105.115 22.49 105.555 23.7 106.435 24.62ZM130.871 12.8C133.231 12.8 135.171 13.56 136.691 15.08C138.231 16.58 139.001 18.55 139.001 20.99C139.001 23.45 138.231 25.44 136.691 26.96C135.171 28.46 133.231 29.21 130.871 29.21C128.711 29.21 127.001 28.49 125.741 27.05V34.82H121.991V12.98H125.561V15.08C126.821 13.56 128.591 12.8 130.871 12.8ZM127.031 24.62C127.931 25.54 129.071 26 130.451 26C131.831 26 132.961 25.54 133.841 24.62C134.741 23.7 135.191 22.49 135.191 20.99C135.191 19.49 134.741 18.28 133.841 17.36C132.961 16.44 131.831 15.98 130.451 15.98C129.071 15.98 127.931 16.44 127.031 17.36C126.131 18.28 125.681 19.49 125.681 20.99C125.681 22.49 126.131 23.7 127.031 24.62ZM149.758 29.21C147.298 29.21 145.258 28.44 143.638 26.9C142.038 25.36 141.238 23.39 141.238 20.99C141.238 18.59 142.038 16.63 143.638 15.11C145.258 13.57 147.298 12.8 149.758 12.8C152.258 12.8 154.308 13.57 155.908 15.11C157.508 16.63 158.308 18.59 158.308 20.99C158.308 23.39 157.508 25.36 155.908 26.9C154.308 28.44 152.258 29.21 149.758 29.21ZM146.338 24.62C147.238 25.54 148.378 26 149.758 26C151.138 26 152.278 25.54 153.178 24.62C154.078 23.7 154.528 22.49 154.528 20.99C154.528 19.49 154.078 18.28 153.178 17.36C152.278 16.44 151.138 15.98 149.758 15.98C148.378 15.98 147.238 16.44 146.338 17.36C145.458 18.28 145.018 19.49 145.018 20.99C145.018 22.49 145.458 23.7 146.338 24.62ZM166.844 29.21C165.544 29.21 164.274 29.04 163.034 28.7C161.794 28.36 160.804 27.93 160.064 27.41L161.504 24.56C163.104 25.62 164.964 26.15 167.084 26.15C169.324 26.15 170.444 25.56 170.444 24.38C170.444 23.92 170.194 23.56 169.694 23.3C169.214 23.02 168.604 22.84 167.864 22.76C167.144 22.66 166.354 22.52 165.494 22.34C164.634 22.16 163.834 21.94 163.094 21.68C162.374 21.42 161.764 20.96 161.264 20.3C160.784 19.64 160.544 18.81 160.544 17.81C160.544 16.29 161.174 15.08 162.434 14.18C163.714 13.26 165.434 12.8 167.594 12.8C170.074 12.8 172.074 13.26 173.594 14.18L172.154 17.03C170.794 16.23 169.264 15.83 167.564 15.83C166.464 15.83 165.624 16 165.044 16.34C164.484 16.66 164.204 17.09 164.204 17.63C164.204 18.13 164.444 18.53 164.924 18.83C165.424 19.11 166.034 19.3 166.754 19.4C167.494 19.48 168.294 19.62 169.154 19.82C170.014 20 170.804 20.22 171.524 20.48C172.264 20.72 172.874 21.17 173.354 21.83C173.854 22.47 174.104 23.28 174.104 24.26C174.104 25.76 173.454 26.96 172.154 27.86C170.854 28.76 169.084 29.21 166.844 29.21ZM183.453 12.8C185.813 12.8 187.613 13.37 188.853 14.51C190.113 15.63 190.743 17.33 190.743 19.61V29H187.203V27.05C186.263 28.49 184.583 29.21 182.163 29.21C180.363 29.21 178.913 28.77 177.813 27.89C176.733 26.99 176.193 25.83 176.193 24.41C176.193 22.97 176.723 21.82 177.783 20.96C178.863 20.08 180.553 19.64 182.853 19.64H186.993V19.4C186.993 18.28 186.653 17.42 185.973 16.82C185.313 16.22 184.323 15.92 183.003 15.92C181.043 15.92 179.423 16.45 178.143 17.51L176.673 14.78C178.393 13.46 180.653 12.8 183.453 12.8ZM182.943 26.48C183.883 26.48 184.713 26.27 185.433 25.85C186.173 25.41 186.693 24.79 186.993 23.99V22.13H183.123C180.963 22.13 179.883 22.84 179.883 24.26C179.883 24.94 180.153 25.48 180.693 25.88C181.233 26.28 181.983 26.48 182.943 26.48ZM195.556 29V6.74H199.306V29H195.556ZM219.939 26.96L220.569 28.01C219.809 28.75 218.739 29.12 217.359 29.12C215.999 29.12 214.949 28.75 214.209 28.01C213.469 27.25 213.099 26.2 213.099 24.86V14.63H210.219V13.34H213.099V9.92H214.599V13.34H219.579V14.63H214.599V24.71C214.599 26.79 215.569 27.83 217.509 27.83C218.489 27.83 219.299 27.54 219.939 26.96ZM235.926 26.9C234.446 28.38 232.576 29.12 230.316 29.12C228.056 29.12 226.186 28.38 224.706 26.9C223.226 25.4 222.486 23.49 222.486 21.17C222.486 18.85 223.226 16.95 224.706 15.47C226.186 13.97 228.056 13.22 230.316 13.22C232.576 13.22 234.446 13.97 235.926 15.47C237.406 16.95 238.146 18.85 238.146 21.17C238.146 23.49 237.406 25.4 235.926 26.9ZM225.786 25.94C226.986 27.16 228.496 27.77 230.316 27.77C232.136 27.77 233.636 27.16 234.816 25.94C236.016 24.7 236.616 23.11 236.616 21.17C236.616 19.23 236.016 17.65 234.816 16.43C233.636 15.19 232.136 14.57 230.316 14.57C228.496 14.57 226.986 15.19 225.786 16.43C224.606 17.65 224.016 19.23 224.016 21.17C224.016 23.11 224.606 24.7 225.786 25.94ZM265.924 8L257.464 21.77V29H255.934V21.77L247.474 8H249.154L256.744 20.36L264.334 8H265.924ZM279.197 26.9C277.717 28.38 275.847 29.12 273.587 29.12C271.327 29.12 269.457 28.38 267.977 26.9C266.497 25.4 265.757 23.49 265.757 21.17C265.757 18.85 266.497 16.95 267.977 15.47C269.457 13.97 271.327 13.22 273.587 13.22C275.847 13.22 277.717 13.97 279.197 15.47C280.677 16.95 281.417 18.85 281.417 21.17C281.417 23.49 280.677 25.4 279.197 26.9ZM269.057 25.94C270.257 27.16 271.767 27.77 273.587 27.77C275.407 27.77 276.907 27.16 278.087 25.94C279.287 24.7 279.887 23.11 279.887 21.17C279.887 19.23 279.287 17.65 278.087 16.43C276.907 15.19 275.407 14.57 273.587 14.57C271.767 14.57 270.257 15.19 269.057 16.43C267.877 17.65 267.287 19.23 267.287 21.17C267.287 23.11 267.877 24.7 269.057 25.94ZM298.281 13.34H299.781V29H298.341V25.64C297.821 26.74 297.051 27.6 296.031 28.22C295.011 28.82 293.811 29.12 292.431 29.12C290.391 29.12 288.791 28.55 287.631 27.41C286.471 26.27 285.891 24.63 285.891 22.49V13.34H287.391V22.37C287.391 24.13 287.841 25.47 288.741 26.39C289.641 27.31 290.911 27.77 292.551 27.77C294.311 27.77 295.701 27.22 296.721 26.12C297.761 25.02 298.281 23.54 298.281 21.68V13.34Z" transform="translate(-1 -6)" fill="#1B063A"/>
</svg>
