<svg xmlns="http://www.w3.org/2000/svg" x="0px" y="0px" viewBox="0 0 16 16" width="16" height="16">
    <g class="nc-icon-wrapper" fill="#444444">
        <g class="nc-icon-wrapper" fill="#444444">
            <path fill="#444444" d="M10.892,16.41L4.241,8.65c-0.321-0.374-0.321-0.927,0-1.301l6.651-7.76l1.519,1.302L6.317,8l6.093,7.108 L10.892,16.41z"></path>
        </g>
    </g>
</svg>