<svg width="14px" height="10px" viewBox="0 0 14 10" version="1.1" xmlns="http://www.w3.org/2000/svg">
    <!-- Generator: Sketch 48.2 (47327) - http://www.bohemiancoding.com/sketch -->
    <desc>Created with Sketch.</desc>
    <defs></defs>
    <g id="Page-1" stroke="none" stroke-width="1" fill="none" fill-rule="evenodd">
        <g id="tick-green" fill="#ffffff" fill-rule="nonzero">
            <polygon id="path-1" points="0 5.19230769 1.4 3.84615385 5 7.3076923 12.6 0 14 1.34615385 5 10"></polygon>
        </g>
    </g>
</svg>
