{
  "profile_uuid": "e7c7d6b2-be35-42b4-bca0-55260709c6d8",
  "employment_type": "employee",
  "company": "SomeCompanyName",
  "is_company_director": null,
  "has_remuneration": 1,
  "additional_info": "blah",
  "salary_additional": "salary additional info"
}