<svg width="12" height="12" viewBox="0 0 12 12" fill="none" xmlns="http://www.w3.org/2000/svg">
    <path d="M11.3327 5.99984L10.3927 5.05984L6.66602 8.77984V0.666504H5.33268V8.77984L1.61268 5.05317L0.666016 5.99984L5.99935 11.3332L11.3327 5.99984Z" fill="#1B073A"/>
</svg>
