<svg width="28" height="28" viewBox="0 0 28 28" fill="none" xmlns="http://www.w3.org/2000/svg">
<path fill-rule="evenodd" clip-rule="evenodd" d="M12.25 2.1001C12.25 1.49463 12.7441 1 13.3574 1C13.9707 1 14.4648 1.49463 14.4648 2.1001V2.90039V5.59961H12.25V2.90039V2.1001ZM13.3574 0C14.2109 0 14.9492 0.505859 15.2793 1.23486C15.6367 0.959473 16.0859 0.800293 16.5723 0.800293C17.7344 0.800293 18.6797 1.73828 18.6797 2.90039V5.59961H23H23.5V6.09961V16.4995V16.9995H23H21.0879C21.0352 21.4287 17.4102 25 12.9551 25C8.49805 25 4.87305 21.4287 4.82031 16.9995H0.5H0V16.4995V6.09961V5.59961H0.5H4.82031V3.7002C4.82031 2.53809 5.76562 1.6001 6.92773 1.6001C7.41406 1.6001 7.86328 1.75977 8.2207 2.03516C8.55078 1.30615 9.28906 0.800293 10.1426 0.800293C10.6289 0.800293 11.0781 0.959473 11.4355 1.23486C11.7656 0.505859 12.5039 0 13.3574 0ZM4.82031 16H5.82031L13.3379 15.9995C13.459 15.8804 13.5879 15.7666 13.7207 15.6597C14.584 14.9688 15.7012 14.522 16.873 14.4214V12.5005C16.873 10.4146 18.498 8.80029 20.5879 8.80029H21.0879V9.30029V15.9995H22.5V6.59961L18.6797 6.6001H17.6797H15.4648H14.4648H12.25H11.25H9.03516H8.03516H5.82031H4.82031L1 6.59961V15.9995L4.82031 16ZM12.5625 16.9995H5.82031C5.87305 20.873 9.04492 24 12.9551 24C16.8965 24 20.0879 20.8193 20.0879 16.9004V16.5V9.84277C18.8008 10.0654 17.873 11.1411 17.873 12.5005V14.9004V15.4004H17.373C16.2461 15.4004 15.1523 15.7959 14.3457 16.4404C13.543 17.084 13.0527 17.9502 13.0527 18.9004V19.4004H12.0527V18.9004C12.0527 18.2085 12.2402 17.5669 12.5625 16.9995ZM15.4648 5.59961V2.90039C15.4648 2.29492 15.959 1.80029 16.5723 1.80029C17.1855 1.80029 17.6797 2.29492 17.6797 2.90039V5.59961H15.4648ZM11.25 2.90039C11.25 2.29492 10.7559 1.80029 10.1426 1.80029C9.5293 1.80029 9.03516 2.29492 9.03516 2.90039V3.7002V5.59961H11.25V2.90039ZM6.92773 2.6001C7.54102 2.6001 8.03516 3.09473 8.03516 3.7002V5.59961H5.82031V3.7002C5.82031 3.09473 6.31445 2.6001 6.92773 2.6001ZM10.2422 11.3003C10.2422 10.4741 10.916 9.80029 11.752 9.80029C12.5859 9.80029 13.2598 10.4741 13.2598 11.3003C13.2598 12.1265 12.5859 12.8003 11.752 12.8003C10.916 12.8003 10.2422 12.1265 10.2422 11.3003ZM11.752 8.80029C10.3672 8.80029 9.24219 9.91748 9.24219 11.3003C9.24219 12.6831 10.3672 13.8003 11.752 13.8003C13.1348 13.8003 14.2598 12.6831 14.2598 11.3003C14.2598 9.91748 13.1348 8.80029 11.752 8.80029ZM3.21484 8.80029H3.71484H6.92969H7.42969V9.80029H6.92969H3.71484H3.21484V8.80029Z" transform="translate(2.5 1.5)" fill="#1B073A"/>
</svg>
